^C:\USERS\NHS20396\DESKTOP\３年\GN31\課題「UDP通信でミニゲーム」\MASTER\WHATISTHISPOKEMON\WHATISTHISPOKEMON\DEBUG\BACKGROUND.OBJ|C:\USERS\NHS20396\DESKTOP\３年\GN31\課題「UDP通信でミニゲーム」\MASTER\WHATISTHISPOKEMON\WHATISTHISPOKEMON\DEBUG\BACKGROUNDMANAGER.OBJ|C:\USERS\NHS20396\DESKTOP\３年\GN31\課題「UDP通信でミニゲーム」\MASTER\WHATISTHISPOKEMON\WHATISTHISPOKEMON\DEBUG\BUTTON.OBJ|C:\USERS\NHS20396\DESKTOP\３年\GN31\課題「UDP通信でミニゲーム」\MASTER\WHATISTHISPOKEMON\WHATISTHISPOKEMON\DEBUG\BUTTONMANAGER.OBJ|C:\USERS\NHS20396\DESKTOP\３年\GN31\課題「UDP通信でミニゲーム」\MASTER\WHATISTHISPOKEMON\WHATISTHISPOKEMON\DEBUG\CAMERA.OBJ|C:\USERS\NHS20396\DESKTOP\３年\GN31\課題「UDP通信でミニゲーム」\MASTER\WHATISTHISPOKEMON\WHATISTHISPOKEMON\DEBUG\CARD.OBJ|C:\USERS\NHS20396\DESKTOP\３年\GN31\課題「UDP通信でミニゲーム」\MASTER\WHATISTHISPOKEMON\WHATISTHISPOKEMON\DEBUG\CARDMANAGER.OBJ|C:\USERS\NHS20396\DESKTOP\３年\GN31\課題「UDP通信でミニゲーム」\MASTER\WHATISTHISPOKEMON\WHATISTHISPOKEMON\DEBUG\COLLISION.OBJ|C:\USERS\NHS20396\DESKTOP\３年\GN31\課題「UDP通信でミニゲーム」\MASTER\WHATISTHISPOKEMON\WHATISTHISPOKEMON\DEBUG\DEALER.OBJ|C:\USERS\NHS20396\DESKTOP\３年\GN31\課題「UDP通信でミニゲーム」\MASTER\WHATISTHISPOKEMON\WHATISTHISPOKEMON\DEBUG\GAME.OBJ|C:\USERS\NHS20396\DESKTOP\３年\GN31\課題「UDP通信でミニゲーム」\MASTER\WHATISTHISPOKEMON\WHATISTHISPOKEMON\DEBUG\GAMEMAIN.OBJ|C:\USERS\NHS20396\DESKTOP\３年\GN31\課題「UDP通信でミニゲーム」\MASTER\WHATISTHISPOKEMON\WHATISTHISPOKEMON\DEBUG\GAMEOVER.OBJ|C:\USERS\NHS20396\DESKTOP\３年\GN31\課題「UDP通信でミニゲーム」\MASTER\WHATISTHISPOKEMON\WHATISTHISPOKEMON\DEBUG\GAMEWND.OBJ|C:\USERS\NHS20396\DESKTOP\３年\GN31\課題「UDP通信でミニゲーム」\MASTER\WHATISTHISPOKEMON\WHATISTHISPOKEMON\DEBUG\GRAPHICS.OBJ|C:\USERS\NHS20396\DESKTOP\３年\GN31\課題「UDP通信でミニゲーム」\MASTER\WHATISTHISPOKEMON\WHATISTHISPOKEMON\DEBUG\INPUT.OBJ|C:\USERS\NHS20396\DESKTOP\３年\GN31\課題「UDP通信でミニゲーム」\MASTER\WHATISTHISPOKEMON\WHATISTHISPOKEMON\DEBUG\MAIN.OBJ|C:\USERS\NHS20396\DESKTOP\３年\GN31\課題「UDP通信でミニゲーム」\MASTER\WHATISTHISPOKEMON\WHATISTHISPOKEMON\DEBUG\MESH.OBJ|C:\USERS\NHS20396\DESKTOP\３年\GN31\課題「UDP通信でミニゲーム」\MASTER\WHATISTHISPOKEMON\WHATISTHISPOKEMON\DEBUG\MOUSE.OBJ|C:\USERS\NHS20396\DESKTOP\３年\GN31\課題「UDP通信でミニゲーム」\MASTER\WHATISTHISPOKEMON\WHATISTHISPOKEMON\DEBUG\MYWINSOCK.OBJ|C:\USERS\NHS20396\DESKTOP\３年\GN31\課題「UDP通信でミニゲーム」\MASTER\WHATISTHISPOKEMON\WHATISTHISPOKEMON\DEBUG\OBJECT.OBJ|C:\USERS\NHS20396\DESKTOP\３年\GN31\課題「UDP通信でミニゲーム」\MASTER\WHATISTHISPOKEMON\WHATISTHISPOKEMON\DEBUG\OBJECT2D.OBJ|C:\USERS\NHS20396\DESKTOP\３年\GN31\課題「UDP通信でミニゲーム」\MASTER\WHATISTHISPOKEMON\WHATISTHISPOKEMON\DEBUG\OBJECT3D.OBJ|C:\USERS\NHS20396\DESKTOP\３年\GN31\課題「UDP通信でミニゲーム」\MASTER\WHATISTHISPOKEMON\WHATISTHISPOKEMON\DEBUG\PLAYER.OBJ|C:\USERS\NHS20396\DESKTOP\３年\GN31\課題「UDP通信でミニゲーム」\MASTER\WHATISTHISPOKEMON\WHATISTHISPOKEMON\DEBUG\POKEMON.OBJ|C:\USERS\NHS20396\DESKTOP\３年\GN31\課題「UDP通信でミニゲーム」\MASTER\WHATISTHISPOKEMON\WHATISTHISPOKEMON\DEBUG\POKEMONCARD.OBJ|C:\USERS\NHS20396\DESKTOP\３年\GN31\課題「UDP通信でミニゲーム」\MASTER\WHATISTHISPOKEMON\WHATISTHISPOKEMON\DEBUG\SCENE.OBJ|C:\USERS\NHS20396\DESKTOP\３年\GN31\課題「UDP通信でミニゲーム」\MASTER\WHATISTHISPOKEMON\WHATISTHISPOKEMON\DEBUG\SOUND.OBJ|C:\USERS\NHS20396\DESKTOP\３年\GN31\課題「UDP通信でミニゲーム」\MASTER\WHATISTHISPOKEMON\WHATISTHISPOKEMON\DEBUG\SYSTEM.OBJ|C:\USERS\NHS20396\DESKTOP\３年\GN31\課題「UDP通信でミニゲーム」\MASTER\WHATISTHISPOKEMON\WHATISTHISPOKEMON\DEBUG\TEXTURE.OBJ|C:\USERS\NHS20396\DESKTOP\３年\GN31\課題「UDP通信でミニゲーム」\MASTER\WHATISTHISPOKEMON\WHATISTHISPOKEMON\DEBUG\TITLE.OBJ|C:\USERS\NHS20396\DESKTOP\３年\GN31\課題「UDP通信でミニゲーム」\MASTER\WHATISTHISPOKEMON\WHATISTHISPOKEMON\DEBUG\WHATISTHISPOKEMON.EXE.EMBED.MANIFEST.RES|C:\USERS\NHS20396\DESKTOP\３年\GN31\課題「UDP通信でミニゲーム」\MASTER\WHATISTHISPOKEMON\WHATISTHISPOKEMON\DEBUG\WINDOW.OBJ
C:\USERS\NHS20396\DESKTOP\３年\GN31\課題「UDP通信でミニゲーム」\MASTER\WHATISTHISPOKEMON\DEBUG\WHATISTHISPOKEMON.ILK
C:\USERS\NHS20396\DESKTOP\３年\GN31\課題「UDP通信でミニゲーム」\MASTER\WHATISTHISPOKEMON\DEBUG\WHATISTHISPOKEMON.EXE
C:\USERS\NHS20396\DESKTOP\３年\GN31\課題「UDP通信でミニゲーム」\MASTER\WHATISTHISPOKEMON\WHATISTHISPOKEMON\DEBUG\WHATISTHISPOKEMON.EXE.INTERMEDIATE.MANIFEST
C:\USERS\NHS20396\DESKTOP\３年\GN31\課題「UDP通信でミニゲーム」\MASTER\WHATISTHISPOKEMON\DEBUG\WHATISTHISPOKEMON.PDB
